S 123 GOOG 2700 10 1647713216771750 1647713216771761
S 124 GOOG 2701 25 1647713216772815 1647713216772828
E 123 125 1 2700 10 1647713216773863 1647713216773882
E 124 125 1 2701 20 1647713216773863 1647713216773887
